<svg xmlns="http://www.w3.org/2000/svg" width="39" height="36" viewBox="0 0 39 36">
  <g id="Group_697" data-name="Group 697" transform="translate(-32 -443)">
    <path id="Path_316" data-name="Path 316" d="M10,0H29A10,10,0,0,1,39,10V26A10,10,0,0,1,29,36H10A10,10,0,0,1,0,26V10A10,10,0,0,1,10,0Z" transform="translate(32 443)" fill="#fff"/>
    <g id="Group_343" data-name="Group 343" transform="translate(43.998 453.006)">
      <path id="Path_183" data-name="Path 183" d="M2.384,20.635c0,.69,0,1.374,0,2.057a.948.948,0,0,0,1,1.042c.25.008.5.011.751,0a.932.932,0,0,0,.936-.97c.01-.592,0-1.185,0-1.778V20.6H9.571v.5c0,.559-.008,1.117,0,1.675a.932.932,0,0,0,.918.954,7.451,7.451,0,0,0,.82,0,.941.941,0,0,0,.961-.985c.011-.706,0-1.411,0-2.145.66,0,1.294-.02,1.925.01a.48.48,0,0,1,.438.492c.01.1.006.205.006.308V33.444c0,.719-.146.868-.852.868H.838c-.668,0-.835-.163-.835-.82q0-6.051,0-12.1c0-.638.172-.809.812-.809.49,0,.979,0,1.469.01C2.3,20.59,2.324,20.607,2.384,20.635Zm4.942,4.942c-2.051,0-4.1.006-6.153-.006-.329,0-.431.1-.429.429q.017,3.642,0,7.283c0,.325.092.433.425.431q6.153-.014,12.306,0c.33,0,.429-.1.427-.428q-.017-3.642,0-7.283c0-.324-.088-.435-.423-.432C11.428,25.583,9.377,25.577,7.326,25.577Z" transform="translate(0 -19.178)" fill="#2a3795"/>
      <path id="Path_184" data-name="Path 184" d="M147.851,1.821c0-.443,0-.887,0-1.33A.432.432,0,0,1,148.3.006l.034,0c1.263-.044,1.132.066,1.127,1.038,0,.693,0,1.387,0,2.08,0,.4-.127.531-.531.539-1.121.025-1.095-.021-1.076-1.019C147.856,2.368,147.851,2.094,147.851,1.821Z" transform="translate(-137.735 0)" fill="#2a3795"/>
      <path id="Path_185" data-name="Path 185" d="M44.345,1.883c0,.431,0,.863,0,1.295a.43.43,0,0,1-.472.494c-1.207.031-1.142,0-1.131-1.027.008-.7,0-1.409,0-2.113,0-.365.119-.5.485-.512,1.257-.051,1.119.073,1.113,1.011C44.344,1.315,44.345,1.6,44.345,1.883Z" transform="translate(-39.815 -0.015)" fill="#2a3795"/>
      <path id="Path_186" data-name="Path 186" d="M53.587,112.018q1.585-1.583,3.167-3.164c.615-.615.613-.616,1.218-.01.04.04.079.082.119.122.3.3.3.4,0,.7q-1.592,1.6-3.187,3.191c-.346.347-.7.689-1.037,1.041a.367.367,0,0,1-.61,0q-1.257-1.279-2.528-2.546a.371.371,0,0,1,0-.613c.157-.148.311-.3.459-.459.219-.236.418-.213.639.009C52.4,110.861,52.982,111.423,53.587,112.018Z" transform="translate(-47.111 -100.986)" fill="#2a3795"/>
    </g>
  </g>
</svg>
