<svg xmlns="http://www.w3.org/2000/svg" width="41.832" height="15.2" viewBox="0 0 41.832 15.2">
  <g id="XMLID_1_" transform="translate(0.016)">
    <path id="XMLID_8_" d="M33,0H28.9a6.492,6.492,0,0,0-5.3,2.7H18A6.31,6.31,0,0,0,12.8,0H8.7C6.2,0,2.4,1.4.8,3.5A3.225,3.225,0,0,0,.1,6.4c.2.7,1.1,3.8,1.2,4a.1.1,0,0,0,.1.1c2.3,4.2,6.1,4.7,8.8,4.7h2.6a6.466,6.466,0,0,0,6.5-6.4V7.9h3.2v.9A6.466,6.466,0,0,0,29,15.2h2.6c2.7,0,6.5-.5,8.8-4.7a.1.1,0,0,1,.1-.1c0-.1,1-3.3,1.2-4A3.163,3.163,0,0,0,41,3.5C39.3,1.4,35.5,0,33,0Zm7.3,6.1c-.2.6-1,3.4-1.1,3.9-2,3.5-5.3,3.9-7.6,3.9H29a5.143,5.143,0,0,1-5.2-5.1V7.2a.684.684,0,0,0-.7-.7H18.6a.684.684,0,0,0-.7.7V8.8a5.143,5.143,0,0,1-5.2,5.1H10.1c-2.3,0-5.7-.4-7.6-3.9-.1-.5-1-3.3-1.1-3.9a2.04,2.04,0,0,1,.4-1.8c1.3-1.7,4.7-3,6.9-3h4.1a5.244,5.244,0,0,1,4.4,2.4.55.55,0,0,0,.5.3H24a.864.864,0,0,0,.6-.3A5.244,5.244,0,0,1,29,1.3h4c2.2,0,5.6,1.3,6.9,3A2.04,2.04,0,0,1,40.3,6.1Z" fill="#9a9a9a"/>
    <path id="XMLID_5_" d="M11.5,2.9H9.1A6.887,6.887,0,0,0,4.2,5a2.1,2.1,0,0,0-.4,2c.1.4.7,2.3.7,2.3a.1.1,0,0,0,.1.1A5.764,5.764,0,0,0,10,12.3h1.5a4.1,4.1,0,0,0,4.1-4V6.9A4.166,4.166,0,0,0,11.5,2.9Zm2.7,4V8.3A2.712,2.712,0,0,1,11.4,11H9.9c-1.4,0-3.2-.2-4.2-2.1C5.6,8.5,5.1,7,5,6.6a.975.975,0,0,1,.2-.8A6.2,6.2,0,0,1,9.1,4.2h2.4A2.689,2.689,0,0,1,14.2,6.9Z" fill="#9a9a9a"/>
    <path id="XMLID_2_" d="M32.6,2.9H30.2a4.1,4.1,0,0,0-4.1,4V8.3a4.034,4.034,0,0,0,4.1,4h1.5a5.764,5.764,0,0,0,5.4-2.9.1.1,0,0,1,.1-.1s.6-1.9.7-2.3a2.182,2.182,0,0,0-.4-1.9A6.6,6.6,0,0,0,32.6,2.9ZM31.8,11H30.3a2.775,2.775,0,0,1-2.8-2.7V6.9a2.712,2.712,0,0,1,2.8-2.7h2.4a5.381,5.381,0,0,1,3.8,1.7.975.975,0,0,1,.2.8h0c-.1.3-.6,1.8-.7,2.2A4.323,4.323,0,0,1,31.8,11Z" fill="#9a9a9a"/>
  </g>
</svg>
